{
	"info": {
		"_postman_id": "d4c175ec-cc46-4c05-b9ac-7d1f78ced585",
		"name": "PutRequests",
		"schema": "https://schema.getpostman.com/json/collection/v2.1.0/collection.json"
	},
	"item": [
		{
			"name": "UpdateExistingCustomer",
			"request": {
				"method": "PUT",
				"header": [],
				"body": {
					"mode": "raw",
					"raw": "{\r\n    \"firstName\": \"Christoffer\",\r\n    \"lastName\": \"Nielsen\",\r\n    \"country\": \"Sweden\",\r\n    \"postalCode\": \"12345\",\r\n    \"phoneNumber\": \"987654+\",\r\n    \"email\": \"christoffer@test\"\r\n}",
					"options": {
						"raw": {
							"language": "json"
						}
					}
				},
				"url": {
					"raw": "http://localhost:8080/api/customer/1",
					"protocol": "http",
					"host": [
						"localhost"
					],
					"port": "8080",
					"path": [
						"api",
						"customer",
						"1"
					]
				}
			},
			"response": []
		}
	]
}